{
  "name": "ds_external_eeprom_i2c",
  "keywords": "eeprom",
  "description": "Library for eeprom AT24Cx",
  "authors":
  [
    {
      "name": "AdmSasha"
    }
  ],
  "repository":
  {
    "type": "git",
    "url": "https://bitbucket.org/admsasha/ds_external_eeprom_i2c.git"
  },
  "frameworks": "arduino"
}